\relax 
\bibstyle{plain}
\citation{2004-Huet-1}
\citation{ML-LCF}
\citation{MLer}
\citation{paulson}
\citation{caml}
\@writefile{toc}{\contentsline {part}{I\hspace  {1em}Dictionaries}{3}\protected@file@percent }
\@writefile{toc}{\contentsline {section}{\numberline {1}Pidgin ML}{4}\protected@file@percent }
\newlabel{../ML/pidgin.ml:0}{{1}{4}}
\newlabel{../ML/pidgin.ml:1092}{{1}{4}}
\newlabel{../ML/pidgin.ml:1737}{{1}{4}}
\newlabel{../ML/pidgin.ml:1802}{{1}{4}}
\newlabel{../ML/pidgin.ml:2111}{{1}{4}}
\newlabel{../ML/pidgin.ml:2274}{{1}{4}}
\citation{ocaml}
\citation{camlp4}
\newlabel{../ML/pidgin.ml:2380}{{1}{5}}
\newlabel{../ML/pidgin.ml:3138}{{1}{5}}
\newlabel{../ML/pidgin.ml:4208}{{1}{5}}
\@writefile{toc}{\contentsline {section}{\numberline {2}Basic Utilities}{5}\protected@file@percent }
\@writefile{toc}{\contentsline {subsection}{\numberline {2.1}Miscellaneous primitives}{6}\protected@file@percent }
\newlabel{../ML/gen.ml:0}{{2.1}{6}}
\newlabel{../ML/gen.ml:708}{{2.1}{6}}
\newlabel{../ML/gen.ml:954}{{2.1}{6}}
\newlabel{../ML/gen.ml:1123}{{2.1}{6}}
\newlabel{../ML/gen.ml:1245}{{2.1}{6}}
\newlabel{../ML/gen.ml:1293}{{2.1}{6}}
\@writefile{toc}{\contentsline {subsection}{\numberline {2.2}List processing}{6}\protected@file@percent }
\newlabel{../ML/list2.ml:0}{{2.2}{7}}
\newlabel{../ML/list2.ml:794}{{2.2}{7}}
\newlabel{../ML/list2.ml:1192}{{2.2}{7}}
\newlabel{../ML/list2.ml:1492}{{2.2}{7}}
\newlabel{../ML/list2.ml:1660}{{2.2}{7}}
\newlabel{../ML/list2.ml:1784}{{2.2}{8}}
\newlabel{../ML/list2.ml:2033}{{2.2}{8}}
\newlabel{../ML/list2.ml:2203}{{2.2}{8}}
\newlabel{../ML/list2.ml:2452}{{2.2}{8}}
\newlabel{../ML/list2.ml:2746}{{2.2}{8}}
\newlabel{../ML/list2.ml:3998}{{2.2}{9}}
\newlabel{../ML/list2.ml:4349}{{2.2}{9}}
\newlabel{../ML/list2.ml:4525}{{2.2}{9}}
\newlabel{../ML/list2.ml:4812}{{2.2}{10}}
\newlabel{../ML/list2.ml:5027}{{2.2}{10}}
\@writefile{toc}{\contentsline {subsection}{\numberline {2.3}Words}{10}\protected@file@percent }
\newlabel{../ML/word.ml:0}{{2.3}{11}}
\newlabel{../ML/word.ml:647}{{2.3}{11}}
\newlabel{../ML/word.ml:2103}{{2.3}{11}}
\newlabel{../ML/word.ml:2356}{{2.3}{11}}
\newlabel{../ML/word.ml:2998}{{2.3}{12}}
\newlabel{../ML/word.ml:3099}{{2.3}{12}}
\newlabel{../ML/word.ml:3452}{{2.3}{12}}
\newlabel{../ML/word.ml:3828}{{2.3}{12}}
\@writefile{toc}{\contentsline {section}{\numberline {3}Zippers}{12}\protected@file@percent }
\citation{zipper}
\@writefile{toc}{\contentsline {subsection}{\numberline {3.1}Top-down structures vs bottom-up structures}{13}\protected@file@percent }
\@writefile{toc}{\contentsline {subsection}{\numberline {3.2}Lists and stacks}{13}\protected@file@percent }
\@writefile{toc}{\contentsline {subsection}{\numberline {3.3}Contexts as zippers}{14}\protected@file@percent }
\newlabel{../ML/zipper.ml:0}{{3.3}{14}}
\newlabel{../ML/zipper.ml:740}{{3.3}{14}}
\newlabel{../ML/zipper.ml:938}{{3.3}{14}}
\newlabel{../ML/zipper.ml:1124}{{3.3}{15}}
\newlabel{../ML/zipper.ml:1292}{{3.3}{15}}
\newlabel{../ML/zipper.ml:1590}{{3.3}{15}}
\newlabel{../ML/zipper.ml:1814}{{3.3}{15}}
\newlabel{../ML/zipper.ml:2342}{{3.3}{16}}
\@writefile{toc}{\contentsline {subsection}{\numberline {3.4}Structured edition on focused trees}{16}\protected@file@percent }
\newlabel{../ML/zipper.ml:2771}{{3.4}{16}}
\@writefile{toc}{\contentsline {subsection}{\numberline {3.5}Zipper operations}{17}\protected@file@percent }
\newlabel{../ML/zipper.ml:4697}{{3.5}{17}}
\@writefile{toc}{\contentsline {subsection}{\numberline {3.6}Zippers as linear maps}{18}\protected@file@percent }
\newlabel{../ML/zipper.ml:5815}{{3.6}{18}}
\newlabel{../ML/zipper.ml:6591}{{3.6}{18}}
\newlabel{../ML/zipper.ml:6808}{{3.6}{19}}
\newlabel{../ML/zipper.ml:7637}{{3.6}{19}}
\newlabel{../ML/zipper.ml:7755}{{3.6}{19}}
\newlabel{../ML/zipper.ml:7996}{{3.6}{19}}
\@writefile{toc}{\contentsline {subsection}{\numberline {3.7}Zippers for binary trees}{19}\protected@file@percent }
\newlabel{../ML/bintree.ml:0}{{3.7}{19}}
\newlabel{../ML/bintree.ml:684}{{3.7}{19}}
\newlabel{../ML/bintree.ml:798}{{3.7}{20}}
\newlabel{../ML/bintree.ml:894}{{3.7}{20}}
\newlabel{../ML/bintree.ml:1127}{{3.7}{20}}
\newlabel{../ML/bintree.ml:1345}{{3.7}{20}}
\newlabel{../ML/bintree.ml:1730}{{3.7}{20}}
\newlabel{../ML/bintree.ml:1954}{{3.7}{21}}
\newlabel{../ML/bintree.ml:2093}{{3.7}{21}}
\newlabel{../ML/bintree.ml:2287}{{3.7}{21}}
\newlabel{../ML/bintree.ml:2794}{{3.7}{21}}
\citation{bentley}
\@writefile{toc}{\contentsline {section}{\numberline {4}Trie Structures for Lexicon Indexing}{22}\protected@file@percent }
\@writefile{toc}{\contentsline {subsection}{\numberline {4.1}Tries as Lexical Trees}{22}\protected@file@percent }
\newlabel{../ML/trie.ml:0}{{4.1}{22}}
\newlabel{../ML/trie.ml:734}{{4.1}{22}}
\newlabel{../ML/trie.ml:1728}{{4.1}{23}}
\newlabel{../ML/trie.ml:2045}{{4.1}{23}}
\newlabel{../ML/trie.ml:2109}{{4.1}{23}}
\newlabel{../ML/trie.ml:2687}{{4.1}{23}}
\newlabel{../ML/trie.ml:2926}{{4.1}{24}}
\newlabel{../ML/trie.ml:3626}{{4.1}{24}}
\newlabel{../ML/trie.ml:3938}{{4.1}{24}}
\newlabel{../ML/trie.ml:4893}{{4.1}{25}}
\newlabel{../ML/trie.ml:4994}{{4.1}{25}}
\newlabel{../ML/trie.ml:5315}{{4.1}{25}}
\newlabel{../ML/trie.ml:5634}{{4.1}{25}}
\newlabel{../ML/trie.ml:5870}{{4.1}{26}}
\@writefile{toc}{\contentsline {subsection}{\numberline {4.2}Ascii encoding}{26}\protected@file@percent }
\newlabel{../ML/ascii.ml:0}{{4.2}{26}}
\newlabel{../ML/ascii.ml:757}{{4.2}{26}}
\@writefile{toc}{\contentsline {subsection}{\numberline {4.3}Implementing a lexicon as a trie}{26}\protected@file@percent }
\newlabel{../ML/lexicon.ml:0}{{4.3}{26}}
\newlabel{../ML/lexicon.ml:814}{{4.3}{26}}
\newlabel{../ML/lexicon.ml:951}{{4.3}{27}}
\newlabel{../ML/lexicon.ml:1085}{{4.3}{27}}
\@writefile{toc}{\contentsline {subsection}{\numberline {4.4}Building a trie lexicon from a byte stream}{27}\protected@file@percent }
\newlabel{../ML/make_lex.ml:0}{{4.4}{27}}
\newlabel{../ML/make_lex.ml:687}{{4.4}{27}}
\newlabel{../ML/make_lex.ml:810}{{4.4}{27}}
\@writefile{toc}{\contentsline {section}{\numberline {5}Sharing}{28}\protected@file@percent }
\newlabel{sharing}{{5}{28}}
\@writefile{toc}{\contentsline {subsection}{\numberline {5.1}The Share functor}{28}\protected@file@percent }
\newlabel{../ML/share.mli:0}{{5.1}{28}}
\newlabel{../ML/share.mli:618}{{5.1}{28}}
\newlabel{../ML/share.ml:0}{{5.1}{28}}
\newlabel{../ML/share.ml:654}{{5.1}{28}}
\newlabel{../ML/share.ml:1496}{{5.1}{29}}
\newlabel{../ML/share.ml:1844}{{5.1}{29}}
\newlabel{../ML/share.ml:1929}{{5.1}{29}}
\newlabel{../ML/share.ml:2209}{{5.1}{29}}
\newlabel{../ML/share.ml:2763}{{5.1}{29}}
\newlabel{../ML/share.ml:4285}{{5.1}{30}}
\@writefile{toc}{\contentsline {subsection}{\numberline {5.2}Compressing tries}{30}\protected@file@percent }
\newlabel{../ML/mini.ml:0}{{5.2}{30}}
\newlabel{../ML/mini.ml:724}{{5.2}{30}}
\newlabel{../ML/mini.ml:1176}{{5.2}{30}}
\newlabel{../ML/mini.ml:1502}{{5.2}{30}}
\newlabel{../ML/mini.ml:1913}{{5.2}{31}}
\@writefile{toc}{\contentsline {subsection}{\numberline {5.3}Dagified lexicons}{31}\protected@file@percent }
\newlabel{../ML/dagify.ml:0}{{5.3}{31}}
\newlabel{../ML/dagify.ml:871}{{5.3}{31}}
\newlabel{../ML/make_english_lexicon.ml:0}{{5.3}{31}}
\newlabel{../ML/make_english_lexicon.ml:757}{{5.3}{31}}
\citation{flajsipste}
\citation{asu}
\@writefile{toc}{\contentsline {subsection}{\numberline {5.4}Some statistics}{32}\protected@file@percent }
\@writefile{toc}{\contentsline {subsection}{\numberline {5.5}ISO-LATIN and French}{33}\protected@file@percent }
\newlabel{../ML/zen_lexer.ml:0}{{5.5}{33}}
\newlabel{../ML/zen_lexer.ml:843}{{5.5}{33}}
\newlabel{../ML/zen_lexer.ml:878}{{5.5}{33}}
\newlabel{../ML/zen_lexer.ml:2304}{{5.5}{34}}
\newlabel{../ML/zen_lexer.ml:2380}{{5.5}{34}}
\citation{dico-report}
\citation{wcre}
\newlabel{../ML/latin.ml:0}{{5.5}{36}}
\newlabel{../ML/latin.ml:749}{{5.5}{36}}
\@writefile{toc}{\contentsline {subsection}{\numberline {5.6}Statistics for French}{36}\protected@file@percent }
\newlabel{../ML/make_french_lexicon.ml:0}{{5.6}{36}}
\newlabel{../ML/make_french_lexicon.ml:784}{{5.6}{36}}
\@writefile{toc}{\contentsline {subsection}{\numberline {5.7}Lexicon repositories using tries and decos}{36}\protected@file@percent }
\citation{bentley}
\@writefile{toc}{\contentsline {section}{\numberline {6}Variation: Ternary trees}{37}\protected@file@percent }
\newlabel{../ML/tertree.ml:0}{{6}{37}}
\newlabel{../ML/tertree.ml:1196}{{6}{38}}
\newlabel{../ML/tertree.ml:1442}{{6}{38}}
\newlabel{../ML/tertree.ml:1740}{{6}{38}}
\newlabel{../ML/tertree.ml:2596}{{6}{39}}
\newlabel{../ML/tertree.ml:2718}{{6}{39}}
\newlabel{../ML/tertree.ml:2924}{{6}{39}}
\newlabel{../ML/tertree.ml:3134}{{6}{39}}
\newlabel{../ML/tertree.ml:3863}{{6}{40}}
\newlabel{../ML/minitertree.ml:0}{{6}{40}}
\newlabel{../ML/minitertree.ml:798}{{6}{40}}
\newlabel{../ML/minitertree.ml:1973}{{6}{41}}
\@writefile{toc}{\contentsline {section}{\numberline {7}Decorated Tries for Inflected Forms Storage}{41}\protected@file@percent }
\@writefile{toc}{\contentsline {subsection}{\numberline {7.1}Decorated Tries}{41}\protected@file@percent }
\newlabel{../ML/deco.ml:0}{{7.1}{42}}
\newlabel{../ML/deco.ml:840}{{7.1}{42}}
\newlabel{../ML/deco.ml:1103}{{7.1}{42}}
\newlabel{../ML/deco.ml:1263}{{7.1}{42}}
\newlabel{../ML/deco.ml:1681}{{7.1}{42}}
\newlabel{../ML/deco.ml:2033}{{7.1}{42}}
\newlabel{../ML/deco.ml:3515}{{7.1}{43}}
\newlabel{../ML/deco.ml:3859}{{7.1}{44}}
\newlabel{../ML/deco.ml:4185}{{7.1}{44}}
\newlabel{../ML/deco.ml:4487}{{7.1}{44}}
\newlabel{../ML/deco.ml:4788}{{7.1}{44}}
\newlabel{../ML/deco.ml:5044}{{7.1}{45}}
\newlabel{../ML/deco.ml:5384}{{7.1}{45}}
\newlabel{../ML/deco.ml:5677}{{7.1}{45}}
\@writefile{toc}{\contentsline {subsection}{\numberline {7.2}Lexical maps}{45}\protected@file@percent }
\newlabel{../ML/lexmap.ml:0}{{7.2}{46}}
\newlabel{../ML/lexmap.ml:745}{{7.2}{46}}
\newlabel{../ML/lexmap.ml:924}{{7.2}{46}}
\newlabel{../ML/lexmap.ml:936}{{7.2}{46}}
\newlabel{../ML/lexmap.ml:1551}{{7.2}{46}}
\newlabel{../ML/lexmap.ml:1662}{{7.2}{46}}
\newlabel{../ML/lexmap.ml:2220}{{7.2}{47}}
\newlabel{../ML/lexmap.ml:2574}{{7.2}{47}}
\newlabel{../ML/lexmap.ml:3225}{{7.2}{47}}
\@writefile{toc}{\contentsline {subsection}{\numberline {7.3}Minimizing lexical maps}{48}\protected@file@percent }
\newlabel{../ML/minimap.mli:0}{{7.3}{48}}
\newlabel{../ML/minimap.mli:654}{{7.3}{48}}
\newlabel{../ML/minimap.ml:0}{{7.3}{48}}
\newlabel{../ML/minimap.ml:655}{{7.3}{48}}
\newlabel{../ML/minimap.ml:919}{{7.3}{48}}
\newlabel{../ML/minimap.ml:1033}{{7.3}{48}}
\citation{mohri}
\citation{rs2}
\citation{kosk}
\citation{kk}
\citation{karttunen1}
\citation{karttunen2}
\citation{beeskar}
\newlabel{../ML/minimap.ml:1264}{{7.3}{49}}
\newlabel{../ML/minimap.ml:1877}{{7.3}{49}}
\@writefile{toc}{\contentsline {section}{\numberline {8}Finite State Machines as Lexicon Morphisms}{49}\protected@file@percent }
\@writefile{toc}{\contentsline {subsection}{\numberline {8.1}Finite-state lore}{49}\protected@file@percent }
\@writefile{toc}{\contentsline {subsection}{\numberline {8.2}Unglueing}{50}\protected@file@percent }
\newlabel{../ML/unglue.ml:0}{{8.2}{51}}
\newlabel{../ML/unglue.ml:1087}{{8.2}{51}}
\newlabel{../ML/unglue.ml:1157}{{8.2}{51}}
\newlabel{../ML/unglue.ml:2205}{{8.2}{51}}
\newlabel{../ML/unglue.ml:3208}{{8.2}{52}}
\newlabel{../ML/unglue.ml:3960}{{8.2}{52}}
\newlabel{../ML/unglue.ml:4519}{{8.2}{53}}
\newlabel{../ML/unglue_test.ml:0}{{8.2}{53}}
\newlabel{../ML/unglue_test.ml:911}{{8.2}{53}}
\newlabel{../ML/unglue_test.ml:1513}{{8.2}{53}}
\newlabel{../ML/unglue_test.ml:1829}{{8.2}{53}}
\citation{sproat}
\newlabel{../ML/unglue_test.ml:1971}{{8.2}{54}}
\newlabel{../ML/unglue_test.ml:3017}{{8.2}{54}}
\newlabel{../ML/unglue_test.ml:4384}{{8.2}{54}}
\newlabel{../ML/unglue_test.ml:4507}{{8.2}{55}}
\newlabel{../ML/unglue_test.ml:5019}{{8.2}{55}}
\newlabel{../ML/unglue_test.ml:5538}{{8.2}{55}}
\citation{2004-Huet-1}
\citation{2003-Huet-3}
\citation{2004-Huet-1}
\citation{2006-Huet-Razet}
\citation{2008-Huet-Razet}
\citation{Razet08a}
\citation{Razet08b}
\citation{Razet09}
\@writefile{toc}{\contentsline {part}{II\hspace  {1em}Reactive Transducers}{57}\protected@file@percent }
\@writefile{toc}{\contentsline {section}{\numberline {9}Introduction}{57}\protected@file@percent }
\@writefile{toc}{\contentsline {section}{\numberline {10}A simplistic modular Automaton recognizer}{57}\protected@file@percent }
\citation{berrysethi}
\citation{berstelpin}
\citation{berrysethi}
\citation{eilenberg}
\@writefile{toc}{\contentsline {subsection}{\numberline {10.1}Simplistic aums}{58}\protected@file@percent }
\newlabel{../ML/aum0.mli:0}{{10.1}{58}}
\newlabel{../ML/aum0.mli:778}{{10.1}{58}}
\newlabel{../ML/aum0.mli:797}{{10.1}{58}}
\@writefile{toc}{\contentsline {subsection}{\numberline {10.2}From automata to reactive processes}{58}\protected@file@percent }
\@writefile{toc}{\contentsline {subsection}{\numberline {10.3}Dispatching}{58}\protected@file@percent }
\@writefile{toc}{\contentsline {subsection}{\numberline {10.4}Scheduling and React}{59}\protected@file@percent }
\newlabel{../ML/react0.ml:0}{{10.4}{59}}
\newlabel{../ML/react0.ml:831}{{10.4}{59}}
\newlabel{../ML/react0.ml:871}{{10.4}{59}}
\newlabel{../ML/react0.ml:1100}{{10.4}{59}}
\newlabel{../ML/react0.ml:1202}{{10.4}{59}}
\newlabel{../ML/react0.ml:1418}{{10.4}{60}}
\newlabel{../ML/react0.ml:1757}{{10.4}{60}}
\newlabel{../ML/react0.ml:2689}{{10.4}{61}}
\@writefile{toc}{\contentsline {section}{\numberline {11}Modular aum transducers}{61}\protected@file@percent }
\newlabel{../ML/aumt.mli:0}{{11}{62}}
\newlabel{../ML/aumt.mli:695}{{11}{62}}
\newlabel{../ML/aumt.mli:714}{{11}{62}}
\newlabel{../ML/aumt.mli:1834}{{11}{62}}
\newlabel{../ML/aumt.mli:2078}{{11}{62}}
\newlabel{../ML/reactt.ml:0}{{11}{63}}
\newlabel{../ML/reactt.ml:747}{{11}{63}}
\newlabel{../ML/reactt.ml:826}{{11}{63}}
\newlabel{../ML/reactt.ml:1055}{{11}{63}}
\newlabel{../ML/reactt.ml:1195}{{11}{63}}
\newlabel{../ML/reactt.ml:1677}{{11}{63}}
\newlabel{../ML/reactt.ml:1870}{{11}{64}}
\newlabel{../ML/reactt.ml:2300}{{11}{64}}
\newlabel{../ML/reactt.ml:3725}{{11}{65}}
\@writefile{toc}{\contentsline {section}{\numberline {12}Macro-Generation of the {\it  Dispatch} module}{67}\protected@file@percent }
\newlabel{macro}{{12}{67}}
\@writefile{toc}{\contentsline {subsection}{\numberline {12.1}Introduction}{67}\protected@file@percent }
\newlabel{../ML/regular.ml:0}{{12.1}{67}}
\@writefile{toc}{\contentsline {subsection}{\numberline {12.2}Module Berry\kern .08em\vbox {\hrule width.35em height.6pt}\kern .08emSethi}{67}\protected@file@percent }
\newlabel{../ML/regular.ml:1222}{{12.2}{67}}
\newlabel{../ML/regular.ml:1251}{{12.2}{67}}
\newlabel{../ML/regular.ml:1949}{{12.2}{68}}
\newlabel{../ML/regular.ml:2997}{{12.2}{68}}
\newlabel{../ML/regular.ml:3969}{{12.2}{69}}
\newlabel{../ML/regular.ml:4547}{{12.2}{69}}
\newlabel{../ML/regular.ml:5366}{{12.2}{69}}
\newlabel{../ML/regular.ml:7009}{{12.2}{70}}
\newlabel{../ML/regular.ml:7523}{{12.2}{71}}
\newlabel{../ML/regular.ml:7840}{{12.2}{71}}
\newlabel{../ML/regular.ml:8523}{{12.2}{72}}
\newlabel{../ML/regular.ml:9270}{{12.2}{72}}
\newlabel{../ML/regular.ml:11137}{{12.2}{73}}
\newlabel{../ML/regular.ml:12280}{{12.2}{74}}
\newlabel{../ML/regular.ml:12480}{{12.2}{74}}
\@writefile{toc}{\contentsline {subsection}{\numberline {12.3}Module Regexp\kern .08em\vbox {\hrule width.35em height.6pt}\kern .08emsystem}{74}\protected@file@percent }
\newlabel{../ML/regular.ml:12963}{{12.3}{74}}
\newlabel{../ML/regular.ml:13078}{{12.3}{74}}
\newlabel{../ML/regular.ml:13382}{{12.3}{75}}
\newlabel{../ML/regular.ml:13540}{{12.3}{75}}
\newlabel{../ML/regular.ml:13719}{{12.3}{75}}
\@writefile{toc}{\contentsline {subsection}{\numberline {12.4}The concrete syntax for modular aums}{76}\protected@file@percent }
\newlabel{../ML/regular.ml:16510}{{12.4}{76}}
\newlabel{../ML/regular.ml:16586}{{12.4}{77}}
\newlabel{../ML/regular.ml:16812}{{12.4}{77}}
\newlabel{../ML/regular.ml:16881}{{12.4}{77}}
\newlabel{../ML/regular.ml:16992}{{12.4}{77}}
\newlabel{../ML/regular.ml:17147}{{12.4}{77}}
\newlabel{../ML/regular.ml:18206}{{12.4}{78}}
\@writefile{toc}{\contentsline {subsection}{\numberline {12.5}Example: Sanskrit morphology}{78}\protected@file@percent }
\@writefile{toc}{\contentsline {subsection}{\numberline {12.6}Module Generate\kern .08em\vbox {\hrule width.35em height.6pt}\kern .08emast}{79}\protected@file@percent }
\newlabel{../ML/regular.ml:20474}{{12.6}{79}}
\newlabel{../ML/regular.ml:20526}{{12.6}{80}}
\newlabel{../ML/regular.ml:20804}{{12.6}{80}}
\newlabel{../ML/regular.ml:21050}{{12.6}{80}}
\newlabel{../ML/regular.ml:21283}{{12.6}{80}}
\newlabel{../ML/regular.ml:21503}{{12.6}{80}}
\newlabel{../ML/regular.ml:21737}{{12.6}{80}}
\newlabel{../ML/regular.ml:22047}{{12.6}{81}}
\newlabel{../ML/regular.ml:22340}{{12.6}{81}}
\newlabel{../ML/regular.ml:22990}{{12.6}{81}}
\newlabel{../ML/regular.ml:23309}{{12.6}{82}}
\newlabel{../ML/regular.ml:24247}{{12.6}{82}}
\@writefile{toc}{\contentsline {subsection}{\numberline {12.7}Generating the plug-in module}{83}\protected@file@percent }
\newlabel{../ML/regular.ml:24868}{{12.7}{83}}
\newlabel{../ML/regular.ml:25118}{{12.7}{83}}
\@writefile{toc}{\contentsline {section}{\numberline {13}Producing the engine}{85}\protected@file@percent }
\citation{2004-Huet-1}
\bibcite{asu}{1}
\newlabel{../ML/sanskrit_engine.ml:0}{{13}{86}}
\newlabel{../ML/sanskrit_engine.ml:689}{{13}{86}}
\newlabel{../ML/sanskrit_engine.ml:776}{{13}{86}}
\newlabel{../ML/sanskrit_engine.ml:859}{{13}{86}}
\newlabel{../ML/sanskrit_engine.ml:928}{{13}{86}}
\bibcite{beeskar}{2}
\bibcite{bentley}{3}
\bibcite{berrysethi}{4}
\bibcite{berstelpin}{5}
\bibcite{brill}{6}
\bibcite{burge}{7}
\bibcite{fp}{8}
\bibcite{daciuk}{9}
\bibcite{eilenberg}{10}
\bibcite{MLer}{11}
\bibcite{flajsipste}{12}
\bibcite{ML-LCF}{13}
\bibcite{zipper}{14}
\bibcite{dico-report}{15}
\bibcite{wcre}{16}
\bibcite{2003-Huet-3}{17}
\bibcite{2004-Huet-1}{18}
\bibcite{2006-Huet-Razet}{19}
\bibcite{2008-Huet-Razet}{20}
\bibcite{kk}{21}
\bibcite{karttunen1}{22}
\bibcite{karttunen2}{23}
\citation{rs2}
\bibcite{kosk}{24}
\bibcite{laporte}{25}
\citation{rs2}
\bibcite{ocaml}{26}
\bibcite{mohri}{27}
\bibcite{paulson}{28}
\bibcite{ranta}{29}
\bibcite{camlp4}{30}
\bibcite{razet05}{31}
\bibcite{Razet08a}{32}
\bibcite{Razet08b}{33}
\bibcite{Razet09}{34}
\bibcite{revuz}{35}
\bibcite{rs1}{36}
\bibcite{rs2}{37}
\bibcite{sproat}{38}
\bibcite{sproatshih}{39}
\bibcite{caml}{40}
